<?xml version="1.0" encoding="UTF-8"?>
<svg width="30px" height="30px" viewBox="0 0 30 30" version="1.1" xmlns="http://www.w3.org/2000/svg" xmlns:xlink="http://www.w3.org/1999/xlink">
    <!-- Generator: Sketch 50.2 (55047) - http://www.bohemiancoding.com/sketch -->
    <title>UI/Icons/Big/Balance_0</title>
    <desc>Created with Sketch.</desc>
    <defs></defs>
    <g id="Symbols" stroke="none" stroke-width="1" fill="none" fill-rule="evenodd">
        <g id="UI/Icons/Big/Balance_0" stroke="#BEC5CF" stroke-width="1.5">
            <path d="M7,12 L22,12 L22,23 L10,23 C8.34314575,23 7,21.6568542 7,20 L7,12 Z" id="Rectangle-2"></path>
            <path d="M9,8 L19,8 L19,12 L7,12 L7,10 C7,8.8954305 7.8954305,8 9,8 Z" id="Rectangle-2-Copy"></path>
            <circle id="Oval-21" cx="18.5" cy="17.5" r="1.25"></circle>
        </g>
    </g>
</svg>