<?xml version="1.0" encoding="UTF-8"?>
<svg width="99px" height="94px" viewBox="0 0 99 94" version="1.1" xmlns="http://www.w3.org/2000/svg" xmlns:xlink="http://www.w3.org/1999/xlink">
    <!-- Generator: Sketch 50.2 (55047) - http://www.bohemiancoding.com/sketch -->
    <title>i/Envelope-2</title>
    <desc>Created with Sketch.</desc>
    <defs>
        <polygon id="path-1" points="0 89.0337 93.646 89.0337 93.646 -0.0003 0 -0.0003"></polygon>
    </defs>
    <g id="Profile" stroke="none" stroke-width="1" fill="none" fill-rule="evenodd">
        <g id="Profile-Settings-Copy-2" transform="translate(-912.000000, -381.000000)">
            <g id="Group-37" transform="translate(640.000000, 316.000000)">
                <g id="i/EMAIL" transform="translate(260.000000, 50.000000)">
                    <g id="Group-22" transform="translate(64.000000, 36.000000)"></g>
                    <g id="Page-1" transform="translate(60.000000, 60.000000) rotate(-6.000000) translate(-60.000000, -60.000000) translate(13.000000, 15.000000)">
                        <path d="M92.6467,88.0334 L1.0007,88.0334 L1.0007,34.1064 L41.9737,2.6464 C44.8337,0.4514 48.8127,0.4514 51.6727,2.6464 L92.6467,34.1064 L92.6467,88.0334 Z" id="Fill-1" fill="#E8EBF6"></path>
                        <path d="M92.6467,88.0334 L1.0007,88.0334 L1.0007,34.1064 L41.9737,2.6464 C44.8337,0.4514 48.8127,0.4514 51.6727,2.6464 L92.6467,34.1064 L92.6467,88.0334 Z" id="Stroke-3" stroke="#1F55A2" stroke-width="2"></path>
                        <path d="M1.0003,34.1067 L92.6463,34.1067" id="Stroke-5" stroke="#1E55A2" stroke-width="0.75"></path>
                        <mask id="mask-2" fill="white">
                            <use xlink:href="#path-1"></use>
                        </mask>
                        <g id="Clip-8"></g>
                        <polygon id="Fill-7" fill="#FEFEFE" mask="url(#mask-2)" points="7.819 74.3697 86.185 74.3697 86.185 12.8917 7.819 12.8917"></polygon>
                        <polygon id="Stroke-9" stroke="#1F55A2" stroke-width="2" mask="url(#mask-2)" points="7.819 74.3697 86.185 74.3697 86.185 12.8917 7.819 12.8917"></polygon>
                        <path d="M15.7883,30.008 C15.7883,24.4 20.3363,19.852 25.9453,19.852 C31.5543,19.852 36.1013,24.4 36.1013,30.008 C36.1013,35.617 31.5543,40.165 25.9453,40.165 C20.3363,40.165 15.7883,35.617 15.7883,30.008" id="Fill-10" fill="#FEFEFE" mask="url(#mask-2)"></path>
                        <path d="M15.7883,30.008 C15.7883,24.4 20.3363,19.852 25.9453,19.852 C31.5543,19.852 36.1013,24.4 36.1013,30.008 C36.1013,35.617 31.5543,40.165 25.9453,40.165 C20.3363,40.165 15.7883,35.617 15.7883,30.008 Z" id="Stroke-11" stroke="#1F55A2" mask="url(#mask-2)"></path>
                        <g id="Group-14" mask="url(#mask-2)">
                            <g transform="translate(20.000000, 27.033700)">
                                <polyline id="Fill-12" stroke="none" fill="#FEFEFE" fill-rule="evenodd" points="0.5569 3.1999 4.7779 7.4209 11.9769 0.2209"></polyline>
                                <polyline id="Stroke-13" stroke="#1F55A2" stroke-width="1" fill="none" points="0.5569 3.1999 4.7779 7.4209 11.9769 0.2209"></polyline>
                            </g>
                        </g>
                        <polygon id="Fill-15" fill="#E8EBF6" mask="url(#mask-2)" points="92.6467 88.0334 1.0007 88.0334 1.0007 34.1064 46.8237 68.4224 92.6467 34.1064"></polygon>
                        <polygon id="Stroke-16" stroke="#1F55A2" stroke-linejoin="bevel" mask="url(#mask-2)" points="92.6467 88.0334 1.0007 88.0334 1.0007 34.1064 46.8237 68.4224 92.6467 34.1064"></polygon>
                        <path d="M92.6467,88.0334 L1.0007,88.0334 L41.3427,63.6364 C44.7117,61.5984 48.9337,61.5984 52.3027,63.6364 L92.6467,88.0334 Z" id="Fill-17" fill="#E8EBF6" mask="url(#mask-2)"></path>
                        <path d="M92.6467,88.0334 L1.0007,88.0334 L41.3427,63.6364 C44.7117,61.5984 48.9337,61.5984 52.3027,63.6364 L92.6467,88.0334 Z" id="Stroke-18" stroke="#1F55A2" stroke-linejoin="bevel" mask="url(#mask-2)"></path>
                        <g id="Group-21" mask="url(#mask-2)">
                            <g transform="translate(40.000000, 22.033700)">
                                <path d="M0.8294,0.1091 L38.3294,0.1091" id="Fill-19" stroke="none" fill="#FEFEFE" fill-rule="evenodd"></path>
                                <path d="M0.8294,0.1091 L38.3294,0.1091" id="Stroke-20" stroke="#1F55A2" stroke-width="1" fill="none"></path>
                            </g>
                        </g>
                        <g id="Group-24" mask="url(#mask-2)">
                            <g transform="translate(40.000000, 29.033700)">
                                <path d="M0.8294,0.2214 L38.3294,0.2214" id="Fill-22" stroke="none" fill="#FEFEFE" fill-rule="evenodd"></path>
                                <path d="M0.8294,0.2214 L38.3294,0.2214" id="Stroke-23" stroke="#1F55A2" stroke-width="1" fill="none"></path>
                            </g>
                        </g>
                        <g id="Group-27" mask="url(#mask-2)">
                            <g transform="translate(40.000000, 36.033700)">
                                <path d="M0.8294,0.1697 L26.8294,0.1697" id="Fill-25" stroke="none" fill="#FEFEFE" fill-rule="evenodd"></path>
                                <path d="M0.8294,0.1697 L26.8294,0.1697" id="Stroke-26" stroke="#1F55A2" stroke-width="1" fill="none"></path>
                            </g>
                        </g>
                    </g>
                </g>
            </g>
        </g>
    </g>
</svg>