<?xml version="1.0" encoding="UTF-8"?>
<svg width="30px" height="30px" viewBox="0 0 30 30" version="1.1" xmlns="http://www.w3.org/2000/svg" xmlns:xlink="http://www.w3.org/1999/xlink">
    <!-- Generator: Sketch 50.2 (55047) - http://www.bohemiancoding.com/sketch -->
    <title>UI / Icons / Big / User_0</title>
    <desc>Created with Sketch.</desc>
    <defs></defs>
    <g id="Symbols" stroke="none" stroke-width="1" fill="none" fill-rule="evenodd">
        <g id="UI-/-Icons-/-Big-/-User_0" stroke="#BEC5CF" stroke-width="1.5">
            <circle id="Oval-19" cx="15" cy="15" r="9"></circle>
            <circle id="Oval-19" cx="15" cy="13" r="3"></circle>
            <path d="M9,22 C9,19.790861 10.790861,18 13,18 L17,18 C19.209139,18 21,19.790861 21,22" id="Rectangle-33"></path>
        </g>
    </g>
</svg>